Handling, Measuring, Estimating and Visualizing Migration Data in R - 6 Migration Age Schedules
…
The (UnitedNations1992?) proposed a number of alternative sets of parameter values to seven-parameter model age schedules in settings outside of the Western-country populations used by (Rogers1981?) when designing their fundamental parameter set. These parameters are provided in the rc_model_un data frame

rc_model_un

# A tibble: 84 × 5
   schedule         schedule_abb sex   param     value
   <chr>            <chr>        <chr> <chr>     <dbl>
 1 Western standard ws           male  a1       0.0215
 2 Western standard ws           male  alpha1   0.105 
 3 Western standard ws           male  a2       0.0694
 4 Western standard ws           male  alpha2   0.112 
 5 Western standard ws           male  mu2     20.0   
 6 Western standard ws           male  lambda2  0.391 
 7 Western standard ws           male  c        0.0028
 8 Low dependency   ld           male  a1       0.0128
 9 Low dependency   ld           male  alpha1   0.105 
10 Low dependency   ld           male  a2       0.0804
# … with 74 more rows
…
# format age column to numeric values
imm_cy_2011 <- imm_cy_2011 %>%
  mutate(
    age = str_remove(string = age, pattern = "Y"),
    age = case_when(
      age == "_LT1" ~ "0",
      age == "_GE100" ~ "101",
      TRUE ~ age
    ), 
    age = as.numeric(age)
  )
imm_cy_2011 

# A tibble: 162 × 7
   agedef   age unit  sex   geo   time       values
   <chr>  <dbl> <chr> <chr> <chr> <date>      <dbl>
 1 REACH      1 NR    F     CY    2011-01-01    130
 2 REACH      1 NR    M     CY    2011-01-01    136
 3 REACH     10 NR    F     CY    2011-01-01     88
 4 REACH     10 NR    M     CY    2011-01-01    102
 5 REACH     11 NR    F     CY    2011-01-01     97
 6 REACH     11 NR    M     CY    2011-01-01     89
 7 REACH     12 NR    F     CY    2011-01-01     89
 8 REACH     12 NR    M     CY    2011-01-01     79
 9 REACH     13 NR    F     CY    2011-01-01     65
10 REACH     13 NR    M     CY    2011-01-01     73
# … with 152 more rows
…
The general shape of the observed values indicate that a seven parameter Rogers Castro migration age schedules is appropriate, where is no retirement peak or post-retirement slope are visable.

The mx values required in the mig_estimate_rc() function represent the standardized migration intensities corresponding to the ages in the ages vector, meaning that their sum should be equal to one. This ensures that the migration intensities are properly scaled and reflect the relative proportions of migration within each age group.

When using the mig_estimate_rc() function, it is common to wait for a few minutes during the computation time. Additionally, the function may print out several messages from Stan, with information about the estimation process, including the progress of the MCMC sampling and any convergence diagnostics.

It is recommended to carefully review the messages printed during the estimation process to ensure that the estimation has converged properly and that the results are reliable. The messages can provide insights into the estimation process and help identify any potential issues or concerns.

# standardize migration intensity
imm_cy_2011 <- imm_cy_2011 %>%
  group_by(sex) %>%
  mutate(mx = values/sum(values)) 
imm_cy_2011

# A tibble: 162 × 8
# Groups:   sex [2]
   agedef   age unit  sex   geo   time       values      mx
   <chr>  <dbl> <chr> <chr> <chr> <date>      <dbl>   <dbl>
 1 REACH      1 NR    F     CY    2011-01-01    130 0.0102 
 2 REACH      1 NR    M     CY    2011-01-01    136 0.0132 
 3 REACH     10 NR    F     CY    2011-01-01     88 0.00693
 4 REACH     10 NR    M     CY    2011-01-01    102 0.00987
 5 REACH     11 NR    F     CY    2011-01-01     97 0.00763
 6 REACH     11 NR    M     CY    2011-01-01     89 0.00862
 7 REACH     12 NR    F     CY    2011-01-01     89 0.00700
 8 REACH     12 NR    M     CY    2011-01-01     79 0.00765
 9 REACH     13 NR    F     CY    2011-01-01     65 0.00512
10 REACH     13 NR    M     CY    2011-01-01     73 0.00707
# … with 152 more rows
…
# A tibble: 7 × 4
  variable    median      lower    upper
  <chr>        <dbl>      <dbl>    <dbl>
1 a1        0.0119    0.0100     0.0137 
2 a2        0.0591    0.0535     0.0674 
3 alpha1    0.0446    0.0286     0.0682 
4 alpha2    0.0776    0.0681     0.0924 
5 c         0.000599  0.0000267  0.00181
6 lambda2   0.295     0.235      0.358  
7 mu2      21.1      20.5       22.0    

# fitted schedule
f_cy_male$fit_df

# A tibble: 81 × 6
     age    data  median   lower   upper       diff_sq
   <dbl>   <dbl>   <dbl>   <dbl>   <dbl>         <dbl>
 1     1 0.0132  0.0120  0.0106  0.0135  0.00000137   
 2    10 0.00987 0.00822 0.00725 0.00911 0.00000273   
 3    11 0.00862 0.00789 0.00687 0.00881 0.000000528  
 4    12 0.00765 0.00758 0.00651 0.00854 0.00000000473
 5    13 0.00707 0.00729 0.00619 0.00828 0.0000000478 
 6    14 0.00687 0.00704 0.00595 0.00806 0.0000000294 
 7    15 0.00552 0.00701 0.00596 0.00805 0.00000223   
 8    16 0.00823 0.00752 0.00642 0.00879 0.000000503  
 9    17 0.00629 0.00917 0.00781 0.0108  0.00000829   
10    18 0.0149  0.0123  0.0106  0.0141  0.00000665   
# … with 71 more rows
…
Most smoothing functions in R typically require two vectors: x and y. The x vector represents the independent variable, such as age, and the y vector represents the dependent variable, such as migration intensity. These functions often have optional arguments that allow you to control the smoothness of the fit, although the names of these arguments may vary depending on the specific smoothing function.

When applying a smoothing function, it will return a list with two components: x and y. It’s important to note that the length of the x vector may differ from the original vector provided. To control the output length, some smoothing functions offer arguments (with different names depending on the function) that allow you to specify the desired length of the output. The x component of the output will match the age values, while the y component will represent the smoothed values of the dependent variable.

6.4.1 Kernal Smoothing

The ksmooth() function in the stats package performs kernel regression smoothing. It estimates a smooth curve by applying a kernel weighting to nearby data points, allowing for flexible and localized smoothing. To demonstrate we will use the migration intensities calculated from the Brazil 2000 IPUMS International sample provided in the ipums_age data frame. Note, there are no intensities for ages below five as the question on previous place of residence five-years prior to the census was not applicable for the sub population.

bra_2000 <- ipumsi_age %>%
  filter(sample == "BRA2000",
         age > 5) %>%
  mutate(mi = migrants/population)
bra_2000

# A tibble: 95 × 5
   sample    age migrants population     mi
   <chr>   <dbl>    <dbl>      <dbl>  <dbl>
 1 BRA2000     6  355723.   3311728. 0.107 
 2 BRA2000     7  343852.   3307567. 0.104 
 3 BRA2000     8  327166.   3258046. 0.100 
 4 BRA2000     9  314905.   3272305. 0.0962
 5 BRA2000    10  324066.   3345583. 0.0969
 6 BRA2000    11  329525.   3451739. 0.0955
 7 BRA2000    12  327113.   3518160. 0.0930
 8 BRA2000    13  323180.   3473133. 0.0931
 9 BRA2000    14  334783.   3566239. 0.0939
10 BRA2000    15  337297.   3528845. 0.0956
# … with 85 more rows
…
List of 2
 $ x: num [1:95] 6 7 8 9 10 11 12 13 14 15 ...
 $ y: num [1:95] 0.1074 0.104 0.1004 0.0962 0.0969 ...

The ksmooth() function is unlikely to smooth a migration age schedule as the default bandwidth parameter is too small for one hundred odd age groups. The bandwidth parameter can be increased to provide a more suitable fit

bra_2000 <- bra_2000 %>% 
  mutate(
    k_default = ksmooth(x = age, y = mi, n.points = n())$y,
    k_5 = ksmooth(x = age, y = mi, n.points = n(), bandwidth = 5)$y,
    k_10 = ksmooth(x = age, y = mi, n.points = n(), bandwidth = 10)$y
  )
bra_2000

# A tibble: 95 × 8
   sample    age migrants population     mi k_default    k_5   k_10
   <chr>   <dbl>    <dbl>      <dbl>  <dbl>     <dbl>  <dbl>  <dbl>
 1 BRA2000     6  355723.   3311728. 0.107     0.107  0.104  0.100 
 2 BRA2000     7  343852.   3307567. 0.104     0.104  0.102  0.0990
 3 BRA2000     8  327166.   3258046. 0.100     0.100  0.101  0.0983
 4 BRA2000     9  314905.   3272305. 0.0962    0.0962 0.0986 0.0978
 5 BRA2000    10  324066.   3345583. 0.0969    0.0969 0.0964 0.0976
 6 BRA2000    11  329525.   3451739. 0.0955    0.0955 0.0949 0.0978
 7 BRA2000    12  327113.   3518160. 0.0930    0.0930 0.0944 0.0975
 8 BRA2000    13  323180.   3473133. 0.0931    0.0931 0.0942 0.0982
 9 BRA2000    14  334783.   3566239. 0.0939    0.0939 0.0950 0.100 
10 BRA2000    15  337297.   3528845. 0.0956    0.0956 0.0973 0.103 
# … with 85 more rows
…
When faced with migration data reported in age groups instead of single-year data, graduating methods can be employed to estimate migration for each individual age. These methods aim to distribute the reported age group totals across the corresponding ages in a way that maintains consistency and ensures that the graduated values sum up to the reported totals.

One useful tool for performing the graduation process is the graduate() function in the DemoTools package. While originally designed for interpolating population totals, it is also suitable for estimating migration flows. The function offers several graduating methods, each with its own approach and assumptions. For a comprehensive understanding of these methods, you can refer to the guide provided here.

To utilize the graduate() function, you need to provide the reported values (Value) and specify the minimum age (Age) for which the data is available. Additionally, for certain methods like pclm, you can specify the maximum value for the final open age group if it exists. By applying the appropriate graduating method, you can obtain estimates of migration for each individual year based on the available age group data.

To demonstrate we will use internal migration data in Italy contained in the italy_area data set in the migest package. In particular we will use the age-specific out migration counts from the Islands regions, which can be derived from using the sum_region() function

ita_reg <- italy_area %>%
  group_by(year, age_grp) %>%
  sum_region() %>%
  separate(col = "age_grp", into = c("age_min", "age_max"), convert = TRUE)
ita_reg

# A tibble: 700 × 8
# Groups:   year [7]
    year age_min age_max region     out_mig in_mig  turn   net
   <dbl>   <int>   <int> <chr>        <dbl>  <dbl> <dbl> <dbl>
 1  1970       0       4 Center        5634   8087 13721  2453
 2  1970       0       4 Islands       7876   4532 12408 -3344
 3  1970       0       4 North-East    4973   5760 10733   787
 4  1970       0       4 North-West   11777  18873 30650  7096
 5  1970       0       4 South        15422   8430 23852 -6992
 6  1970       5       9 Center        4726   7448 12174  2722
 7  1970       5       9 Islands       7271   3592 10863 -3679
 8  1970       5       9 North-East    4172   5327  9499  1155
 9  1970       5       9 North-West    9530  17719 27249  8189
10  1970       5       9 South        14745   6358 21103 -8387
# … with 690 more rows
…
